Practica_Tarea_1/simulation/qsim/temporizador_decimas_de_segundo.msim.vcd
$comment
	File created using the following command:
		vcd file temporizador_decimas_de_segundo.msim.vcd -direction
$end
$date
	Sat Feb 24 13:15:03 2024
$end
$version
	ModelSim Version 10.1d
$end
$timescale
	1ps
$end
$scope module temporizador_decimas_de_segundo_vlg_vec_tst $end
$var reg 1 ! CLK $end
$var reg 1 " RST $end
$var wire 1 # OUT $end
$var wire 1 $ sampler $end
$scope module i1 $end
$var wire 1 % gnd $end
$var wire 1 & vcc $end
$var wire 1 ' unknown $end
$var tri1 1 ( devclrn $end
$var tri1 1 ) devpor $end
$var tri1 1 * devoe $end
$var wire 1 + inst4|6~regout $end
$var wire 1 , inst2|9~regout $end
$var wire 1 - inst4|8~regout $end
$var wire 1 . inst4|6~0_combout $end
$var wire 1 / inst3|7~regout $end
$var wire 1 0 inst2|8~regout $end
$var wire 1 1 inst2|7~regout $end
$var wire 1 2 inst2|45~1_combout $end
$var wire 1 3 inst2|13~0_combout $end
$var wire 1 4 inst4|8~0_combout $end
$var wire 1 5 inst3|7~0_combout $end
$var wire 1 6 inst2|8~0_combout $end
$var wire 1 7 inst2|7~0_combout $end
$var wire 1 8 CLK~combout $end
$var wire 1 9 CLK~clkctrl_outclk $end
$var wire 1 : inst|sub|9~0_combout $end
$var wire 1 ; RST~combout $end
$var wire 1 < RST~clkctrl_outclk $end
$var wire 1 = inst|sub|9~regout $end
$var wire 1 > inst|sub|87~0_combout $end
$var wire 1 ? inst|sub|87~regout $end
$var wire 1 @ inst|sub|99~0_combout $end
$var wire 1 A inst|sub|99~regout $end
$var wire 1 B inst|sub|110~0_combout $end
$var wire 1 C inst|sub|110~regout $end
$var wire 1 D inst|sub|104~combout $end
$var wire 1 E inst1|sub|9~0_combout $end
$var wire 1 F inst1|sub|9~regout $end
$var wire 1 G inst1|sub|87~0_combout $end
$var wire 1 H inst1|sub|87~regout $end
$var wire 1 I inst1|sub|99~0_combout $end
$var wire 1 J inst1|sub|99~regout $end
$var wire 1 K inst1|sub|94~combout $end
$var wire 1 L inst1|sub|110~0_combout $end
$var wire 1 M inst1|sub|110~regout $end
$var wire 1 N inst2|6~0_combout $end
$var wire 1 O inst2|6~regout $end
$var wire 1 P inst2|45~0_combout $end
$var wire 1 Q inst2|45~combout $end
$var wire 1 R inst3|6~0_combout $end
$var wire 1 S inst3|6~regout $end
$var wire 1 T inst3|8~0_combout $end
$var wire 1 U inst3|8~regout $end
$var wire 1 V inst3|45~0_combout $end
$var wire 1 W inst3|13~0_combout $end
$var wire 1 X inst3|9~regout $end
$var wire 1 Y inst4|45~0_combout $end
$var wire 1 Z inst4|7~0_combout $end
$var wire 1 [ inst4|7~regout $end
$var wire 1 \ inst4|13~0_combout $end
$var wire 1 ] inst4|9~regout $end
$var wire 1 ^ inst6|6~0_combout $end
$var wire 1 _ inst6|6~regout $end
$var wire 1 ` inst6|50~0_combout $end
$var wire 1 a inst6|13~0_combout $end
$var wire 1 b inst6|9~regout $end
$var wire 1 c inst6|7~0_combout $end
$var wire 1 d inst6|7~regout $end
$var wire 1 e inst6|8~0_combout $end
$var wire 1 f inst6|8~regout $end
$var wire 1 g inst7~0_combout $end
$var wire 1 h inst8~0_combout $end
$var wire 1 i inst11~1_combout $end
$var wire 1 j inst11~2_combout $end
$upscope $end
$upscope $end
$enddefinitions $end
#0
$dumpvars
0!
0"
1#
x$
0%
1&
x'
1(
1)
1*
0+
0,
0-
0.
0/
00
01
02
03
04
05
06
07
08
09
1:
0;
0<
0=
0>
0?
0@
0A
0B
0C
0D
0E
0F
0G
0H
0I
0J
0K
0L
0M
0N
0O
0P
0Q
0R
0S
0T
0U
0V
0W
0X
0Y
0Z
0[
0\
0]
0^
0_
0`
0a
0b
0c
0d
0e
0f
1g
0h
1i
1j
$end
#18519
1!
18
19
0$
#37037
0!
08
09
1$
#55556
1!
18
19
0$
#74074
0!
08
09
1$
#92593
1!
18
19
0$
#111111
0!
08
09
1$
#129630
1!
18
19
0$
#148148
0!
08
09
1$
#166667
1!
18
19
0$
#185185
0!
08
09
1$
#203704
1!
18
19
0$
#222222
0!
08
09
1$
#240741
1!
18
19
0$
#259259
0!
08
09
1$
#277778
1!
18
19
0$
#296296
0!
08
09
1$
#314815
1!
18
19
0$
#333333
0!
08
09
1$
#351852
1!
18
19
0$
#370370
0!
08
09
1$
#388889
1!
18
19
0$
#407407
0!
08
09
1$
#425926
1!
18
19
0$
#444444
0!
08
09
1$
#462963
1!
18
19
0$
#481481
0!
08
09
1$
#500000
1!
18
19
0$
#518518
0!
08
09
1$
#537037
1!
18
19
0$
#555555
0!
08
09
1$
#574074
1!
18
19
0$
#592592
0!
08
09
1$
#611111
1!
18
19
0$
#629629
0!
08
09
1$
#648148
1!
18
19
0$
#666666
0!
08
09
1$
#685185
1!
18
19
0$
#703703
0!
08
09
1$
#722222
1!
18
19
0$
#740740
0!
08
09
1$
#759259
1!
18
19
0$
#777777
0!
08
09
1$
#796296
1!
18
19
0$
#814814
0!
08
09
1$
#833333
1!
18
19
0$
#851851
0!
08
09
1$
#870370
1!
18
19
0$
#888888
0!
08
09
1$
#907407
1!
18
19
0$
#925925
0!
08
09
1$
#944444
1!
18
19
0$
#962962
0!
08
09
1$
#981481
1!
18
19
0$
#999999
0!
08
09
1$
