Practica_3_temporizadores/simulation/qsim/temporizador.msim.vcd
$comment
	File created using the following command:
		vcd file temporizador.msim.vcd -direction
$end
$date
	Wed Feb 07 23:22:42 2024
$end
$version
	ModelSim Version 10.1d
$end
$timescale
	1ps
$end
$scope module temporizador_vlg_vec_tst $end
$var reg 1 ! CLK $end
$var reg 1 " RST $end
$var wire 1 # OUT $end
$var wire 1 $ sampler $end
$scope module i1 $end
$var wire 1 % gnd $end
$var wire 1 & vcc $end
$var wire 1 ' unknown $end
$var tri1 1 ( devclrn $end
$var tri1 1 ) devpor $end
$var tri1 1 * devoe $end
$var wire 1 + inst6|6~regout $end
$var wire 1 , inst5|9~regout $end
$var wire 1 - inst2|9~regout $end
$var wire 1 . inst|sub|99~regout $end
$var wire 1 / inst6|6~0_combout $end
$var wire 1 0 inst5|8~regout $end
$var wire 1 1 inst5|7~regout $end
$var wire 1 2 inst5|45~0_combout $end
$var wire 1 3 inst5|13~0_combout $end
$var wire 1 4 inst4|8~regout $end
$var wire 1 5 inst3|7~regout $end
$var wire 1 6 inst2|8~regout $end
$var wire 1 7 inst2|7~regout $end
$var wire 1 8 inst2|45~1_combout $end
$var wire 1 9 inst2|13~0_combout $end
$var wire 1 : inst|sub|99~0_combout $end
$var wire 1 ; inst5|8~0_combout $end
$var wire 1 < inst5|7~0_combout $end
$var wire 1 = inst4|8~0_combout $end
$var wire 1 > inst3|7~0_combout $end
$var wire 1 ? inst2|8~0_combout $end
$var wire 1 @ inst2|7~0_combout $end
$var wire 1 A CLK~combout $end
$var wire 1 B CLK~clkctrl_outclk $end
$var wire 1 C inst|sub|9~0_combout $end
$var wire 1 D RST~combout $end
$var wire 1 E RST~clkctrl_outclk $end
$var wire 1 F inst|sub|9~regout $end
$var wire 1 G inst|sub|87~0_combout $end
$var wire 1 H inst|sub|87~regout $end
$var wire 1 I inst|sub|110~0_combout $end
$var wire 1 J inst|sub|110~regout $end
$var wire 1 K inst|sub|104~combout $end
$var wire 1 L inst1|sub|9~0_combout $end
$var wire 1 M inst1|sub|9~regout $end
$var wire 1 N inst1|sub|99~0_combout $end
$var wire 1 O inst1|sub|99~regout $end
$var wire 1 P inst1|sub|94~combout $end
$var wire 1 Q inst1|sub|110~0_combout $end
$var wire 1 R inst1|sub|110~regout $end
$var wire 1 S inst2|6~0_combout $end
$var wire 1 T inst2|6~regout $end
$var wire 1 U inst1|sub|87~0_combout $end
$var wire 1 V inst1|sub|87~regout $end
$var wire 1 W inst2|45~0_combout $end
$var wire 1 X inst2|45~combout $end
$var wire 1 Y inst3|6~0_combout $end
$var wire 1 Z inst3|6~regout $end
$var wire 1 [ inst3|8~0_combout $end
$var wire 1 \ inst3|8~regout $end
$var wire 1 ] inst3|45~0_combout $end
$var wire 1 ^ inst3|13~0_combout $end
$var wire 1 _ inst3|9~regout $end
$var wire 1 ` inst4|6~0_combout $end
$var wire 1 a inst4|6~regout $end
$var wire 1 b inst4|45~0_combout $end
$var wire 1 c inst4|7~0_combout $end
$var wire 1 d inst4|7~regout $end
$var wire 1 e inst4|13~0_combout $end
$var wire 1 f inst4|9~regout $end
$var wire 1 g inst5|6~0_combout $end
$var wire 1 h inst5|6~regout $end
$var wire 1 i inst5|45~combout $end
$var wire 1 j inst6|8~0_combout $end
$var wire 1 k inst6|8~regout $end
$var wire 1 l inst6|46~0_combout $end
$var wire 1 m inst6|13~0_combout $end
$var wire 1 n inst6|9~regout $end
$var wire 1 o inst6|7~0_combout $end
$var wire 1 p inst6|7~regout $end
$var wire 1 q inst8~0_combout $end
$var wire 1 r inst7~0_combout $end
$var wire 1 s inst11~1_combout $end
$var wire 1 t inst11~2_combout $end
$upscope $end
$upscope $end
$enddefinitions $end
#0
$dumpvars
0!
0"
1#
x$
0%
1&
x'
1(
1)
1*
0+
0,
0-
0.
0/
00
01
02
03
04
05
06
07
08
09
0:
0;
0<
0=
0>
0?
0@
0A
0B
1C
0D
0E
0F
0G
0H
0I
0J
0K
0L
0M
0N
0O
0P
0Q
0R
0S
0T
0U
0V
0W
0X
0Y
0Z
0[
0\
0]
0^
0_
0`
0a
0b
0c
0d
0e
0f
0g
0h
0i
0j
0k
0l
0m
0n
0o
0p
0q
1r
1s
1t
$end
#18519
1!
1A
1B
0$
#33334
1"
1D
1E
1$
#37037
0!
0"
0A
0D
0E
0B
0$
#55556
1!
1A
1B
1$
#70371
1"
1D
1E
0$
#74074
0!
0"
0A
0D
0E
0B
1$
#92593
1!
1A
1B
0$
#107408
1"
1D
1E
1$
#111111
0!
0"
0A
0D
0E
0B
0$
#129630
1!
1A
1B
1$
#144445
1"
1D
1E
0$
#148148
0!
0"
0A
0D
0E
0B
1$
#166667
1!
1A
1B
0$
#181482
1"
1D
1E
1$
#185185
0!
0"
0A
0D
0E
0B
0$
#203704
1!
1A
1B
1$
#218519
1"
1D
1E
0$
#222222
0!
0"
0A
0D
0E
0B
1$
#240741
1!
1A
1B
0$
#255556
1"
1D
1E
1$
#259259
0!
0"
0A
0D
0E
0B
0$
#277778
1!
1A
1B
1$
#292593
1"
1D
1E
0$
#296296
0!
0"
0A
0D
0E
0B
1$
#314815
1!
1A
1B
0$
#329630
1"
1D
1E
1$
#333333
0!
0"
0A
0D
0E
0B
0$
#351852
1!
1A
1B
1$
#366667
1"
1D
1E
0$
#370370
0!
0"
0A
0D
0E
0B
1$
#388889
1!
1A
1B
0$
#403704
1"
1D
1E
1$
#407407
0!
0"
0A
0D
0E
0B
0$
#425926
1!
1A
1B
1$
#440741
1"
1D
1E
0$
#444444
0!
0"
0A
0D
0E
0B
1$
#462963
1!
1A
1B
0$
#477778
1"
1D
1E
1$
#481481
0!
0"
0A
0D
0E
0B
0$
#500000
1!
1A
1B
1$
#514815
1"
1D
1E
0$
#518518
0!
0"
0A
0D
0E
0B
1$
#537037
1!
1A
1B
0$
#551852
1"
1D
1E
1$
#555555
0!
0"
0A
0D
0E
0B
0$
#574074
1!
1A
1B
1$
#588889
1"
1D
1E
0$
#592592
0!
0"
0A
0D
0E
0B
1$
#611111
1!
1A
1B
0$
#625926
1"
1D
1E
1$
#629629
0!
0"
0A
0D
0E
0B
0$
#648148
1!
1A
1B
1$
#662963
1"
1D
1E
0$
#666666
0!
0"
0A
0D
0E
0B
1$
#685185
1!
1A
1B
0$
#700000
1"
1D
1E
1$
#703703
0!
0"
0A
0D
0E
0B
0$
#722222
1!
1A
1B
1$
#737037
1"
1D
1E
0$
#740740
0!
0"
0A
0D
0E
0B
1$
#759259
1!
1A
1B
0$
#774074
1"
1D
1E
1$
#777777
0!
0"
0A
0D
0E
0B
0$
#796296
1!
1A
1B
1$
#811111
1"
1D
1E
0$
#814814
0!
0"
0A
0D
0E
0B
1$
#833333
1!
1A
1B
0$
#848148
1"
1D
1E
1$
#851851
0!
0"
0A
0D
0E
0B
0$
#870370
1!
1A
1B
1$
#885185
1"
1D
1E
0$
#888888
0!
0"
0A
0D
0E
0B
1$
#907407
1!
1A
1B
0$
#922222
1"
1D
1E
1$
#925925
0!
0"
0A
0D
0E
0B
0$
#944444
1!
1A
1B
1$
#959259
1"
1D
1E
0$
#962962
0!
0"
0A
0D
0E
0B
1$
#981481
1!
1A
1B
0$
#996296
1"
1D
1E
1$
#999999
0!
0"
0A
0D
0E
0B
0$
#1018518
1!
1A
1B
1$
#1033333
1"
1D
1E
0$
#1037036
0!
0"
0A
0D
0E
0B
1$
#1055555
1!
1A
1B
0$
#1070370
1"
1D
1E
1$
#1074073
0!
0"
0A
0D
0E
0B
0$
#1092592
1!
1A
1B
1$
#1107407
1"
1D
1E
0$
#1111110
0!
0"
0A
0D
0E
0B
1$
#1129629
1!
1A
1B
0$
#1144444
1"
1D
1E
1$
#1148147
0!
0"
0A
0D
0E
0B
0$
#1166666
1!
1A
1B
1$
#1181481
1"
1D
1E
0$
#1185184
0!
0"
0A
0D
0E
0B
1$
#1203703
1!
1A
1B
0$
#1218518
1"
1D
1E
1$
#1222221
0!
0"
0A
0D
0E
0B
0$
#1240740
1!
1A
1B
1$
#1255555
1"
1D
1E
0$
#1259258
0!
0"
0A
0D
0E
0B
1$
#1277777
1!
1A
1B
0$
#1292592
1"
1D
1E
1$
#1296295
0!
0"
0A
0D
0E
0B
0$
#1314814
1!
1A
1B
1$
#1329629
1"
1D
1E
0$
#1333332
0!
0"
0A
0D
0E
0B
1$
#1351851
1!
1A
1B
0$
#1366666
1"
1D
1E
1$
#1370369
0!
0"
0A
0D
0E
0B
0$
#1388888
1!
1A
1B
1$
#1403703
1"
1D
1E
0$
#1407406
0!
0"
0A
0D
0E
0B
1$
#1425925
1!
1A
1B
0$
#1440740
1"
1D
1E
1$
#1444443
0!
0"
0A
0D
0E
0B
0$
#1462962
1!
1A
1B
1$
#1477777
1"
1D
1E
0$
#1481480
0!
0"
0A
0D
0E
0B
1$
#1499999
1!
1A
1B
0$
#1514814
1"
1D
1E
1$
#1518517
0!
0"
0A
0D
0E
0B
0$
#1537036
1!
1A
1B
1$
#1551851
1"
1D
1E
0$
#1555554
0!
0"
0A
0D
0E
0B
1$
#1574073
1!
1A
1B
0$
#1588888
1"
1D
1E
1$
#1592591
0!
0"
0A
0D
0E
0B
0$
#1611110
1!
1A
1B
1$
#1625925
1"
1D
1E
0$
#1629628
0!
0"
0A
0D
0E
0B
1$
#1648147
1!
1A
1B
0$
#1662962
1"
1D
1E
1$
#1666665
0!
0"
0A
0D
0E
0B
0$
#1685184
1!
1A
1B
1$
#1699999
1"
1D
1E
0$
#1703702
0!
0"
0A
0D
0E
0B
1$
#1722221
1!
1A
1B
0$
#1737036
1"
1D
1E
1$
#1740739
0!
0"
0A
0D
0E
0B
0$
#1759258
1!
1A
1B
1$
#1774073
1"
1D
1E
0$
#1777776
0!
0"
0A
0D
0E
0B
1$
#1796295
1!
1A
1B
0$
#1811110
1"
1D
1E
1$
#1814813
0!
0"
0A
0D
0E
0B
0$
#1833332
1!
1A
1B
1$
#1848147
1"
1D
1E
0$
#1851850
0!
0"
0A
0D
0E
0B
1$
#1870369
1!
1A
1B
0$
#1885184
1"
1D
1E
1$
#1888887
0!
0"
0A
0D
0E
0B
0$
#1907406
1!
1A
1B
1$
#1922221
1"
1D
1E
0$
#1925924
0!
0"
0A
0D
0E
0B
1$
#1944443
1!
1A
1B
0$
#1959258
1"
1D
1E
1$
#1962961
0!
0"
0A
0D
0E
0B
0$
#1981480
1!
1A
1B
1$
#1996295
1"
1D
1E
0$
#1999998
0!
0"
0A
0D
0E
0B
1$
#2018517
1!
1A
1B
0$
#2033332
1"
1D
1E
1$
#2037035
0!
0"
0A
0D
0E
0B
0$
#2055554
1!
1A
1B
1$
#2070369
1"
1D
1E
0$
#2074072
0!
0"
0A
0D
0E
0B
1$
#2092591
1!
1A
1B
0$
#2107406
1"
1D
1E
1$
#2111109
0!
0"
0A
0D
0E
0B
0$
#2129628
1!
1A
1B
1$
#2144443
1"
1D
1E
0$
#2148146
0!
0"
0A
0D
0E
0B
1$
#2166665
1!
1A
1B
0$
#2181480
1"
1D
1E
1$
#2185183
0!
0"
0A
0D
0E
0B
0$
#2203702
1!
1A
1B
1$
#2218517
1"
1D
1E
0$
#2222220
0!
0"
0A
0D
0E
0B
1$
#2240739
1!
1A
1B
0$
#2255554
1"
1D
1E
1$
#2259257
0!
0"
0A
0D
0E
0B
0$
#2277776
1!
1A
1B
1$
#2292591
1"
1D
1E
0$
#2296294
0!
0"
0A
0D
0E
0B
1$
#2314813
1!
1A
1B
0$
#2329628
1"
1D
1E
1$
#2333331
0!
0"
0A
0D
0E
0B
0$
#2351850
1!
1A
1B
1$
#2366665
1"
1D
1E
0$
#2370368
0!
0"
0A
0D
0E
0B
1$
#2388887
1!
1A
1B
0$
#2403702
1"
1D
1E
1$
#2407405
0!
0"
0A
0D
0E
0B
0$
#2425924
1!
1A
1B
1$
#2440739
1"
1D
1E
0$
#2444442
0!
0"
0A
0D
0E
0B
1$
#2462961
1!
1A
1B
0$
#2477776
1"
1D
1E
1$
#2481479
0!
0"
0A
0D
0E
0B
0$
#2499998
1!
1A
1B
1$
#2514813
1"
1D
1E
0$
#2518516
0!
0"
0A
0D
0E
0B
1$
#2537035
1!
1A
1B
0$
#2551850
1"
1D
1E
1$
#2555553
0!
0"
0A
0D
0E
0B
0$
#2574072
1!
1A
1B
1$
#2588887
1"
1D
1E
0$
#2592590
0!
0"
0A
0D
0E
0B
1$
#2611109
1!
1A
1B
0$
#2625924
1"
1D
1E
1$
#2629627
0!
0"
0A
0D
0E
0B
0$
#2648146
1!
1A
1B
1$
#2662961
1"
1D
1E
0$
#2666664
0!
0"
0A
0D
0E
0B
1$
#2685183
1!
1A
1B
0$
#2699998
1"
1D
1E
1$
#2703701
0!
0"
0A
0D
0E
0B
0$
#2722220
1!
1A
1B
1$
#2737035
1"
1D
1E
0$
#2740738
0!
0"
0A
0D
0E
0B
1$
#2759257
1!
1A
1B
0$
#2774072
1"
1D
1E
1$
#2777775
0!
0"
0A
0D
0E
0B
0$
#2796294
1!
1A
1B
1$
#2811109
1"
1D
1E
0$
#2814812
0!
0"
0A
0D
0E
0B
1$
#2833331
1!
1A
1B
0$
#2848146
1"
1D
1E
1$
#2851849
0!
0"
0A
0D
0E
0B
0$
#2870368
1!
1A
1B
1$
#2885183
1"
1D
1E
0$
#2888886
0!
0"
0A
0D
0E
0B
1$
#2907405
1!
1A
1B
0$
#2922220
1"
1D
1E
1$
#2925923
0!
0"
0A
0D
0E
0B
0$
#2944442
1!
1A
1B
1$
#2959257
1"
1D
1E
0$
#2962960
0!
0"
0A
0D
0E
0B
1$
#2981479
1!
1A
1B
0$
#2996294
1"
1D
1E
1$
#2999997
0!
0"
0A
0D
0E
0B
0$
#3018516
1!
1A
1B
1$
#3033331
1"
1D
1E
0$
#3037034
0!
0"
0A
0D
0E
0B
1$
#3055553
1!
1A
1B
0$
#3070368
1"
1D
1E
1$
#3074071
0!
0"
0A
0D
0E
0B
0$
#3092590
1!
1A
1B
1$
#3107405
1"
1D
1E
0$
#3111108
0!
0"
0A
0D
0E
0B
1$
#3129627
1!
1A
1B
0$
#3144442
1"
1D
1E
1$
#3148145
0!
0"
0A
0D
0E
0B
0$
#3166664
1!
1A
1B
1$
#3181479
1"
1D
1E
0$
#3185182
0!
0"
0A
0D
0E
0B
1$
#3203701
1!
1A
1B
0$
#3218516
1"
1D
1E
1$
#3222219
0!
0"
0A
0D
0E
0B
0$
#3240738
1!
1A
1B
1$
#3255553
1"
1D
1E
0$
#3259256
0!
0"
0A
0D
0E
0B
1$
#3277775
1!
1A
1B
0$
#3292590
1"
1D
1E
1$
#3296293
0!
0"
0A
0D
0E
0B
0$
#3314812
1!
1A
1B
1$
#3329627
1"
1D
1E
0$
#3333330
0!
0"
0A
0D
0E
0B
1$
#3351849
1!
1A
1B
0$
#3366664
1"
1D
1E
1$
#3370367
0!
0"
0A
0D
0E
0B
0$
#3388886
1!
1A
1B
1$
#3403701
1"
1D
1E
0$
#3407404
0!
0"
0A
0D
0E
0B
1$
#3425923
1!
1A
1B
0$
#3440738
1"
1D
1E
1$
#3444441
0!
0"
0A
0D
0E
0B
0$
#3462960
1!
1A
1B
1$
#3477775
1"
1D
1E
0$
#3481478
0!
0"
0A
0D
0E
0B
1$
#3499997
1!
1A
1B
0$
#3514812
1"
1D
1E
1$
#3518515
0!
0"
0A
0D
0E
0B
0$
#3537034
1!
1A
1B
1$
#3551849
1"
1D
1E
0$
#3555552
0!
0"
0A
0D
0E
0B
1$
#3574071
1!
1A
1B
0$
#3588886
1"
1D
1E
1$
#3592589
0!
0"
0A
0D
0E
0B
0$
#3611108
1!
1A
1B
1$
#3625923
1"
1D
1E
0$
#3629626
0!
0"
0A
0D
0E
0B
1$
#3648145
1!
1A
1B
0$
#3662960
1"
1D
1E
1$
#3666663
0!
0"
0A
0D
0E
0B
0$
#3685182
1!
1A
1B
1$
#3699997
1"
1D
1E
0$
#3703700
0!
0"
0A
0D
0E
0B
1$
#3722219
1!
1A
1B
0$
#3737034
1"
1D
1E
1$
#3740737
0!
0"
0A
0D
0E
0B
0$
#3759256
1!
1A
1B
1$
#3774071
1"
1D
1E
0$
#3777774
0!
0"
0A
0D
0E
0B
1$
#3796293
1!
1A
1B
0$
#3811108
1"
1D
1E
1$
#3814811
0!
0"
0A
0D
0E
0B
0$
#3833330
1!
1A
1B
1$
#3848145
1"
1D
1E
0$
#3851848
0!
0"
0A
0D
0E
0B
1$
#3870367
1!
1A
1B
0$
#3885182
1"
1D
1E
1$
#3888885
0!
0"
0A
0D
0E
0B
0$
#3907404
1!
1A
1B
1$
#3922219
1"
1D
1E
0$
#3925922
0!
0"
0A
0D
0E
0B
1$
#3944441
1!
1A
1B
0$
#3959256
1"
1D
1E
1$
#3962959
0!
0"
0A
0D
0E
0B
0$
#3981478
1!
1A
1B
1$
#3996293
1"
1D
1E
0$
#3999996
0!
0"
0A
0D
0E
0B
1$
#4018515
1!
1A
1B
0$
#4033330
1"
1D
1E
1$
#4037033
0!
0"
0A
0D
0E
0B
0$
#4055552
1!
1A
1B
1$
#4070367
1"
1D
1E
0$
#4074070
0!
0"
0A
0D
0E
0B
1$
#4092589
1!
1A
1B
0$
#4107404
1"
1D
1E
1$
#4111107
0!
0"
0A
0D
0E
0B
0$
#4129626
1!
1A
1B
1$
#4144441
1"
1D
1E
0$
#4148144
0!
0"
0A
0D
0E
0B
1$
#4166663
1!
1A
1B
0$
#4181478
1"
1D
1E
1$
#4185181
0!
0"
0A
0D
0E
0B
0$
#4203700
1!
1A
1B
1$
#4218515
1"
1D
1E
0$
#4222218
0!
0"
0A
0D
0E
0B
1$
#4240737
1!
1A
1B
0$
#4255552
1"
1D
1E
1$
#4259255
0!
0"
0A
0D
0E
0B
0$
#4277774
1!
1A
1B
1$
#4292589
1"
1D
1E
0$
#4296292
0!
0"
0A
0D
0E
0B
1$
#4314811
1!
1A
1B
0$
#4329626
1"
1D
1E
1$
#4333329
0!
0"
0A
0D
0E
0B
0$
#4351848
1!
1A
1B
1$
#4366663
1"
1D
1E
0$
#4370366
0!
0"
0A
0D
0E
0B
1$
#4388885
1!
1A
1B
0$
#4403700
1"
1D
1E
1$
#4407403
0!
0"
0A
0D
0E
0B
0$
#4425922
1!
1A
1B
1$
#4440737
1"
1D
1E
0$
#4444440
0!
0"
0A
0D
0E
0B
1$
#4462959
1!
1A
1B
0$
#4477774
1"
1D
1E
1$
#4481477
0!
0"
0A
0D
0E
0B
0$
#4499996
1!
1A
1B
1$
#4514811
1"
1D
1E
0$
#4518514
0!
0"
0A
0D
0E
0B
1$
#4537033
1!
1A
1B
0$
#4551848
1"
1D
1E
1$
#4555551
0!
0"
0A
0D
0E
0B
0$
#4574070
1!
1A
1B
1$
#4588885
1"
1D
1E
0$
#4592588
0!
0"
0A
0D
0E
0B
1$
#4611107
1!
1A
1B
0$
#4625922
1"
1D
1E
1$
#4629625
0!
0"
0A
0D
0E
0B
0$
#4648144
1!
1A
1B
1$
#4662959
1"
1D
1E
0$
#4666662
0!
0"
0A
0D
0E
0B
1$
#4685181
1!
1A
1B
0$
#4699996
1"
1D
1E
1$
#4703699
0!
0"
0A
0D
0E
0B
0$
#4722218
1!
1A
1B
1$
#4737033
1"
1D
1E
0$
#4740736
0!
0"
0A
0D
0E
0B
1$
#4759255
1!
1A
1B
0$
#4774070
1"
1D
1E
1$
#4777773
0!
0"
0A
0D
0E
0B
0$
#4796292
1!
1A
1B
1$
#4811107
1"
1D
1E
0$
#4814810
0!
0"
0A
0D
0E
0B
1$
#4833329
1!
1A
1B
0$
#4848144
1"
1D
1E
1$
#4851847
0!
0"
0A
0D
0E
0B
0$
#4870366
1!
1A
1B
1$
#4885181
1"
1D
1E
0$
#4888884
0!
0"
0A
0D
0E
0B
1$
#4907403
1!
1A
1B
0$
#4922218
1"
1D
1E
1$
#4925921
0!
0"
0A
0D
0E
0B
0$
#4944440
1!
1A
1B
1$
#4959255
1"
1D
1E
0$
#4962958
0!
0"
0A
0D
0E
0B
1$
#4981477
1!
1A
1B
0$
#4996292
1"
1D
1E
1$
#4999995
0!
0"
0A
0D
0E
0B
0$
#5018514
1!
1A
1B
1$
#5033329
1"
1D
1E
0$
#5037032
0!
0"
0A
0D
0E
0B
1$
#5055551
1!
1A
1B
0$
#5070366
1"
1D
1E
1$
#5074069
0!
0"
0A
0D
0E
0B
0$
#5092588
1!
1A
1B
1$
#5107403
1"
1D
1E
0$
#5111106
0!
0"
0A
0D
0E
0B
1$
#5129625
1!
1A
1B
0$
#5144440
1"
1D
1E
1$
#5148143
0!
0"
0A
0D
0E
0B
0$
#5166662
1!
1A
1B
1$
#5181477
1"
1D
1E
0$
#5185180
0!
0"
0A
0D
0E
0B
1$
#5203699
1!
1A
1B
0$
#5218514
1"
1D
1E
1$
#5222217
0!
0"
0A
0D
0E
0B
0$
#5240736
1!
1A
1B
1$
#5255551
1"
1D
1E
0$
#5259254
0!
0"
0A
0D
0E
0B
1$
#5277773
1!
1A
1B
0$
#5292588
1"
1D
1E
1$
#5296291
0!
0"
0A
0D
0E
0B
0$
#5314810
1!
1A
1B
1$
#5329625
1"
1D
1E
0$
#5333328
0!
0"
0A
0D
0E
0B
1$
#5351847
1!
1A
1B
0$
#5366662
1"
1D
1E
1$
#5370365
0!
0"
0A
0D
0E
0B
0$
#5388884
1!
1A
1B
1$
#5403699
1"
1D
1E
0$
#5407402
0!
0"
0A
0D
0E
0B
1$
#5425921
1!
1A
1B
0$
#5440736
1"
1D
1E
1$
#5444439
0!
0"
0A
0D
0E
0B
0$
#5462958
1!
1A
1B
1$
#5477773
1"
1D
1E
0$
#5481476
0!
0"
0A
0D
0E
0B
1$
#5499995
1!
1A
1B
0$
#5514810
1"
1D
1E
1$
#5518513
0!
0"
0A
0D
0E
0B
0$
#5537032
1!
1A
1B
1$
#5551847
1"
1D
1E
0$
#5555550
0!
0"
0A
0D
0E
0B
1$
#5574069
1!
1A
1B
0$
#5588884
1"
1D
1E
1$
#5592587
0!
0"
0A
0D
0E
0B
0$
#5611106
1!
1A
1B
1$
#5625921
1"
1D
1E
0$
#5629624
0!
0"
0A
0D
0E
0B
1$
#5648143
1!
1A
1B
0$
#5662958
1"
1D
1E
1$
#5666661
0!
0"
0A
0D
0E
0B
0$
#5685180
1!
1A
1B
1$
#5699995
1"
1D
1E
0$
#5703698
0!
0"
0A
0D
0E
0B
1$
#5722217
1!
1A
1B
0$
#5737032
1"
1D
1E
1$
#5740735
0!
0"
0A
0D
0E
0B
0$
#5759254
1!
1A
1B
1$
#5774069
1"
1D
1E
0$
#5777772
0!
0"
0A
0D
0E
0B
1$
#5796291
1!
1A
1B
0$
#5811106
1"
1D
1E
1$
#5814809
0!
0"
0A
0D
0E
0B
0$
#5833328
1!
1A
1B
1$
#5848143
1"
1D
1E
0$
#5851846
0!
0"
0A
0D
0E
0B
1$
#5870365
1!
1A
1B
0$
#5885180
1"
1D
1E
1$
#5888883
0!
0"
0A
0D
0E
0B
0$
#5907402
1!
1A
1B
1$
#5922217
1"
1D
1E
0$
#5925920
0!
0"
0A
0D
0E
0B
1$
#5944439
1!
1A
1B
0$
#5959254
1"
1D
1E
1$
#5962957
0!
0"
0A
0D
0E
0B
0$
#5981476
1!
1A
1B
1$
#5996291
1"
1D
1E
0$
#5999994
0!
0"
0A
0D
0E
0B
1$
#6018513
1!
1A
1B
0$
#6033328
1"
1D
1E
1$
#6037031
0!
0"
0A
0D
0E
0B
0$
#6055550
1!
1A
1B
1$
#6070365
1"
1D
1E
0$
#6074068
0!
0"
0A
0D
0E
0B
1$
#6092587
1!
1A
1B
0$
#6107402
1"
1D
1E
1$
#6111105
0!
0"
0A
0D
0E
0B
0$
#6129624
1!
1A
1B
1$
#6144439
1"
1D
1E
0$
#6148142
0!
0"
0A
0D
0E
0B
1$
#6166661
1!
1A
1B
0$
#6181476
1"
1D
1E
1$
#6185179
0!
0"
0A
0D
0E
0B
0$
#6203698
1!
1A
1B
1$
#6218513
1"
1D
1E
0$
#6222216
0!
0"
0A
0D
0E
0B
1$
#6240735
1!
1A
1B
0$
#6255550
1"
1D
1E
1$
#6259253
0!
0"
0A
0D
0E
0B
0$
#6277772
1!
1A
1B
1$
#6292587
1"
1D
1E
0$
#6296290
0!
0"
0A
0D
0E
0B
1$
#6314809
1!
1A
1B
0$
#6329624
1"
1D
1E
1$
#6333327
0!
0"
0A
0D
0E
0B
0$
#6351846
1!
1A
1B
1$
#6366661
1"
1D
1E
0$
#6370364
0!
0"
0A
0D
0E
0B
1$
#6388883
1!
1A
1B
0$
#6403698
1"
1D
1E
1$
#6407401
0!
0"
0A
0D
0E
0B
0$
#6425920
1!
1A
1B
1$
#6440735
1"
1D
1E
0$
#6444438
0!
0"
0A
0D
0E
0B
1$
#6462957
1!
1A
1B
0$
#6477772
1"
1D
1E
1$
#6481475
0!
0"
0A
0D
0E
0B
0$
#6499994
1!
1A
1B
1$
#6514809
1"
1D
1E
0$
#6518512
0!
0"
0A
0D
0E
0B
1$
#6537031
1!
1A
1B
0$
#6551846
1"
1D
1E
1$
#6555549
0!
0"
0A
0D
0E
0B
0$
#6574068
1!
1A
1B
1$
#6588883
1"
1D
1E
0$
#6592586
0!
0"
0A
0D
0E
0B
1$
#6611105
1!
1A
1B
0$
#6625920
1"
1D
1E
1$
#6629623
0!
0"
0A
0D
0E
0B
0$
#6648142
1!
1A
1B
1$
#6662957
1"
1D
1E
0$
#6666660
0!
0"
0A
0D
0E
0B
1$
#6685179
1!
1A
1B
0$
#6699994
1"
1D
1E
1$
#6703697
0!
0"
0A
0D
0E
0B
0$
#6722216
1!
1A
1B
1$
#6737031
1"
1D
1E
0$
#6740734
0!
0"
0A
0D
0E
0B
1$
#6759253
1!
1A
1B
0$
#6774068
1"
1D
1E
1$
#6777771
0!
0"
0A
0D
0E
0B
0$
#6796290
1!
1A
1B
1$
#6811105
1"
1D
1E
0$
#6814808
0!
0"
0A
0D
0E
0B
1$
#6833327
1!
1A
1B
0$
#6848142
1"
1D
1E
1$
#6851845
0!
0"
0A
0D
0E
0B
0$
#6870364
1!
1A
1B
1$
#6885179
1"
1D
1E
0$
#6888882
0!
0"
0A
0D
0E
0B
1$
#6907401
1!
1A
1B
0$
#6922216
1"
1D
1E
1$
#6925919
0!
0"
0A
0D
0E
0B
0$
#6944438
1!
1A
1B
1$
#6959253
1"
1D
1E
0$
#6962956
0!
0"
0A
0D
0E
0B
1$
#6981475
1!
1A
1B
0$
#6996290
1"
1D
1E
1$
#6999993
0!
0"
0A
0D
0E
0B
0$
#7018512
1!
1A
1B
1$
#7033327
1"
1D
1E
0$
#7037030
0!
0"
0A
0D
0E
0B
1$
#7055549
1!
1A
1B
0$
#7070364
1"
1D
1E
1$
#7074067
0!
0"
0A
0D
0E
0B
0$
#7092586
1!
1A
1B
1$
#7107401
1"
1D
1E
0$
#7111104
0!
0"
0A
0D
0E
0B
1$
#7129623
1!
1A
1B
0$
#7144438
1"
1D
1E
1$
#7148141
0!
0"
0A
0D
0E
0B
0$
#7166660
1!
1A
1B
1$
#7181475
1"
1D
1E
0$
#7185178
0!
0"
0A
0D
0E
0B
1$
#7203697
1!
1A
1B
0$
#7218512
1"
1D
1E
1$
#7222215
0!
0"
0A
0D
0E
0B
0$
#7240734
1!
1A
1B
1$
#7255549
1"
1D
1E
0$
#7259252
0!
0"
0A
0D
0E
0B
1$
#7277771
1!
1A
1B
0$
#7292586
1"
1D
1E
1$
#7296289
0!
0"
0A
0D
0E
0B
0$
#7314808
1!
1A
1B
1$
#7329623
1"
1D
1E
0$
#7333326
0!
0"
0A
0D
0E
0B
1$
#7351845
1!
1A
1B
0$
#7366660
1"
1D
1E
1$
#7370363
0!
0"
0A
0D
0E
0B
0$
#7388882
1!
1A
1B
1$
#7403697
1"
1D
1E
0$
#7407400
0!
0"
0A
0D
0E
0B
1$
#7425919
1!
1A
1B
0$
#7440734
1"
1D
1E
1$
#7444437
0!
0"
0A
0D
0E
0B
0$
#7462956
1!
1A
1B
1$
#7477771
1"
1D
1E
0$
#7481474
0!
0"
0A
0D
0E
0B
1$
#7499993
1!
1A
1B
0$
#7514808
1"
1D
1E
1$
#7518511
0!
0"
0A
0D
0E
0B
0$
#7537030
1!
1A
1B
1$
#7551845
1"
1D
1E
0$
#7555548
0!
0"
0A
0D
0E
0B
1$
#7574067
1!
1A
1B
0$
#7588882
1"
1D
1E
1$
#7592585
0!
0"
0A
0D
0E
0B
0$
#7611104
1!
1A
1B
1$
#7625919
1"
1D
1E
0$
#7629622
0!
0"
0A
0D
0E
0B
1$
#7648141
1!
1A
1B
0$
#7662956
1"
1D
1E
1$
#7666659
0!
0"
0A
0D
0E
0B
0$
#7685178
1!
1A
1B
1$
#7699993
1"
1D
1E
0$
#7703696
0!
0"
0A
0D
0E
0B
1$
#7722215
1!
1A
1B
0$
#7737030
1"
1D
1E
1$
#7740733
0!
0"
0A
0D
0E
0B
0$
#7759252
1!
1A
1B
1$
#7774067
1"
1D
1E
0$
#7777770
0!
0"
0A
0D
0E
0B
1$
#7796289
1!
1A
1B
0$
#7811104
1"
1D
1E
1$
#7814807
0!
0"
0A
0D
0E
0B
0$
#7833326
1!
1A
1B
1$
#7848141
1"
1D
1E
0$
#7851844
0!
0"
0A
0D
0E
0B
1$
#7870363
1!
1A
1B
0$
#7885178
1"
1D
1E
1$
#7888881
0!
0"
0A
0D
0E
0B
0$
#7907400
1!
1A
1B
1$
#7922215
1"
1D
1E
0$
#7925918
0!
0"
0A
0D
0E
0B
1$
#7944437
1!
1A
1B
0$
#7959252
1"
1D
1E
1$
#7962955
0!
0"
0A
0D
0E
0B
0$
#7981474
1!
1A
1B
1$
#7996289
1"
1D
1E
0$
