Practica_Tarea_4/simulation/qsim/contador_3.msim.vcd
$comment
	File created using the following command:
		vcd file contador_3.msim.vcd -direction
$end
$date
	Sat Feb 24 21:17:28 2024
$end
$version
	ModelSim Version 10.1d
$end
$timescale
	1ps
$end
$scope module contador_3_vlg_vec_tst $end
$var reg 1 ! CLOCK $end
$var reg 1 " RST $end
$var wire 1 # ADES $end
$var wire 1 $ ADM $end
$var wire 1 % ADS $end
$var wire 1 & AUM $end
$var wire 1 ' AUS $end
$var wire 1 ( BDES $end
$var wire 1 ) BDM $end
$var wire 1 * BDS $end
$var wire 1 + BUM $end
$var wire 1 , BUS $end
$var wire 1 - CDES $end
$var wire 1 . CDM $end
$var wire 1 / CDS $end
$var wire 1 0 CUM $end
$var wire 1 1 CUS $end
$var wire 1 2 DDES $end
$var wire 1 3 DDM $end
$var wire 1 4 DDS $end
$var wire 1 5 DUM $end
$var wire 1 6 DUS $end
$var wire 1 7 EDES $end
$var wire 1 8 EDM $end
$var wire 1 9 EDS $end
$var wire 1 : EUM $end
$var wire 1 ; EUS $end
$var wire 1 < FDES $end
$var wire 1 = FDM $end
$var wire 1 > FDS $end
$var wire 1 ? FUM $end
$var wire 1 @ FUS $end
$var wire 1 A GDES $end
$var wire 1 B GDM $end
$var wire 1 C GDS $end
$var wire 1 D GUM $end
$var wire 1 E GUS $end
$var wire 1 F OUT $end
$var wire 1 G sampler $end
$scope module i1 $end
$var wire 1 H gnd $end
$var wire 1 I vcc $end
$var wire 1 J unknown $end
$var tri1 1 K devclrn $end
$var tri1 1 L devpor $end
$var tri1 1 M devoe $end
$var wire 1 N inst1|inst11~2_combout $end
$var wire 1 O inst|inst|inst5|8~regout $end
$var wire 1 P inst|inst|inst5|7~regout $end
$var wire 1 Q inst|inst|inst5|9~regout $end
$var wire 1 R inst1|inst7~0_combout $end
$var wire 1 S inst1|inst8~0_combout $end
$var wire 1 T inst|inst|inst3|9~regout $end
$var wire 1 U inst|inst|inst2|6~regout $end
$var wire 1 V inst|inst|inst5|45~0_combout $end
$var wire 1 W inst|inst|inst5|8~0_combout $end
$var wire 1 X inst|inst|inst5|7~0_combout $end
$var wire 1 Y inst|inst|inst5|13~0_combout $end
$var wire 1 Z inst|inst|inst4|8~regout $end
$var wire 1 [ inst|inst|inst3|8~regout $end
$var wire 1 \ inst|inst|inst3|7~regout $end
$var wire 1 ] inst|inst|inst3|45~0_combout $end
$var wire 1 ^ inst|inst|inst3|13~0_combout $end
$var wire 1 _ inst|inst|inst2|8~regout $end
$var wire 1 ` inst|inst|inst2|6~0_combout $end
$var wire 1 a inst|inst|inst4|8~0_combout $end
$var wire 1 b inst|inst|inst3|8~0_combout $end
$var wire 1 c inst|inst|inst3|7~0_combout $end
$var wire 1 d inst|inst|inst2|8~0_combout $end
$var wire 1 e inst1|inst11~1_combout $end
$var wire 1 f CLOCK~combout $end
$var wire 1 g inst1|inst11~2clkctrl_outclk $end
$var wire 1 h inst|inst|inst11~2clkctrl_outclk $end
$var wire 1 i inst|inst1|45~clkctrl_outclk $end
$var wire 1 j CLOCK~clkctrl_outclk $end
$var wire 1 k inst2|6~0_combout $end
$var wire 1 l inst2|6~regout $end
$var wire 1 m inst2|7~0_combout $end
$var wire 1 n inst2|7~regout $end
$var wire 1 o inst2|9~0_combout $end
$var wire 1 p inst2|9~regout $end
$var wire 1 q inst2|8~0_combout $end
$var wire 1 r inst2|8~regout $end
$var wire 1 s inst3|81~combout $end
$var wire 1 t inst3|82~0_combout $end
$var wire 1 u inst3|83~combout $end
$var wire 1 v inst3|84~0_combout $end
$var wire 1 w inst3|85~combout $end
$var wire 1 x inst3|86~0_combout $end
$var wire 1 y inst3|87~combout $end
$var wire 1 z inst|inst|inst1|sub|110~0_combout $end
$var wire 1 { inst|inst|inst1|sub|110~regout $end
$var wire 1 | inst|inst|inst|sub|87~0_combout $end
$var wire 1 } RST~combout $end
$var wire 1 ~ RST~clkctrl_outclk $end
$var wire 1 !! inst|inst|inst|sub|87~regout $end
$var wire 1 "! inst|inst|inst|sub|99~0_combout $end
$var wire 1 #! inst|inst|inst|sub|99~regout $end
$var wire 1 $! inst|inst|inst|sub|110~0_combout $end
$var wire 1 %! inst|inst|inst|sub|110~regout $end
$var wire 1 &! inst|inst|inst|sub|9~0_combout $end
$var wire 1 '! inst|inst|inst|sub|9~regout $end
$var wire 1 (! inst|inst|inst|sub|104~combout $end
$var wire 1 )! inst|inst|inst1|sub|87~0_combout $end
$var wire 1 *! inst|inst|inst1|sub|87~regout $end
$var wire 1 +! inst|inst|inst1|sub|9~0_combout $end
$var wire 1 ,! inst|inst|inst1|sub|9~regout $end
$var wire 1 -! inst|inst|inst1|sub|99~0_combout $end
$var wire 1 .! inst|inst|inst1|sub|99~regout $end
$var wire 1 /! inst|inst|inst1|sub|94~combout $end
$var wire 1 0! inst|inst|inst2|45~1_combout $end
$var wire 1 1! inst|inst|inst2|7~0_combout $end
$var wire 1 2! inst|inst|inst2|7~regout $end
$var wire 1 3! inst|inst|inst2|13~0_combout $end
$var wire 1 4! inst|inst|inst2|9~regout $end
$var wire 1 5! inst|inst|inst2|45~0_combout $end
$var wire 1 6! inst|inst|inst2|45~combout $end
$var wire 1 7! inst|inst|inst3|6~0_combout $end
$var wire 1 8! inst|inst|inst3|6~regout $end
$var wire 1 9! inst|inst|inst4|6~0_combout $end
$var wire 1 :! inst|inst|inst4|6~regout $end
$var wire 1 ;! inst|inst|inst4|45~0_combout $end
$var wire 1 <! inst|inst|inst5|6~0_combout $end
$var wire 1 =! inst|inst|inst5|6~regout $end
$var wire 1 >! inst|inst|inst4|7~0_combout $end
$var wire 1 ?! inst|inst|inst4|7~regout $end
$var wire 1 @! inst|inst|inst4|13~0_combout $end
$var wire 1 A! inst|inst|inst4|9~regout $end
$var wire 1 B! inst|inst|inst5|45~combout $end
$var wire 1 C! inst|inst|inst6|6~0_combout $end
$var wire 1 D! inst|inst|inst6|6~regout $end
$var wire 1 E! inst|inst|inst6|8~0_combout $end
$var wire 1 F! inst|inst|inst6|8~regout $end
$var wire 1 G! inst|inst|inst6|7~0_combout $end
$var wire 1 H! inst|inst|inst6|7~regout $end
$var wire 1 I! inst|inst|inst6|46~0_combout $end
$var wire 1 J! inst|inst|inst6|13~0_combout $end
$var wire 1 K! inst|inst|inst6|9~regout $end
$var wire 1 L! inst|inst|inst7~0_combout $end
$var wire 1 M! inst|inst|inst8~0_combout $end
$var wire 1 N! inst|inst|inst11~1_combout $end
$var wire 1 O! inst|inst|inst11~2_combout $end
$var wire 1 P! inst|inst1|6~0_combout $end
$var wire 1 Q! inst|inst1|6~regout $end
$var wire 1 R! inst|inst1|7~0_combout $end
$var wire 1 S! inst|inst1|7~regout $end
$var wire 1 T! inst|inst1|8~0_combout $end
$var wire 1 U! inst|inst1|8~regout $end
$var wire 1 V! inst|inst1|9~0_combout $end
$var wire 1 W! inst|inst1|9~regout $end
$var wire 1 X! inst|inst3|81~combout $end
$var wire 1 Y! inst|inst3|82~0_combout $end
$var wire 1 Z! inst|inst3|83~combout $end
$var wire 1 [! inst|inst3|84~0_combout $end
$var wire 1 \! inst|inst3|85~combout $end
$var wire 1 ]! inst|inst3|86~0_combout $end
$var wire 1 ^! inst|inst3|87~combout $end
$var wire 1 _! inst|inst1|45~combout $end
$var wire 1 `! inst|inst2|8~0_combout $end
$var wire 1 a! inst|inst2|8~regout $end
$var wire 1 b! inst|inst2|46~0_combout $end
$var wire 1 c! inst|inst2|13~0_combout $end
$var wire 1 d! inst|inst2|9~regout $end
$var wire 1 e! inst|inst2|7~0_combout $end
$var wire 1 f! inst|inst2|7~regout $end
$var wire 1 g! inst|inst2|6~0_combout $end
$var wire 1 h! inst|inst2|6~regout $end
$var wire 1 i! inst|inst4|81~0_combout $end
$var wire 1 j! inst|inst4|82~0_combout $end
$var wire 1 k! inst|inst4|83~combout $end
$var wire 1 l! inst|inst4|84~0_combout $end
$var wire 1 m! inst|inst4|85~combout $end
$var wire 1 n! inst|inst4|86~0_combout $end
$var wire 1 o! inst|inst4|87~combout $end
$var wire 1 p! inst|inst10|2~combout $end
$var wire 1 q! inst|inst10|3~regout $end
$var wire 1 r! inst|inst10|4~feeder_combout $end
$var wire 1 s! inst|inst10|4~regout $end
$var wire 1 t! inst|inst10|5~0_combout $end
$var wire 1 u! inst|inst10|5~regout $end
$var wire 1 v! inst|inst6|6~0_combout $end
$var wire 1 w! inst|inst6|6~regout $end
$var wire 1 x! inst|inst6|8~0_combout $end
$var wire 1 y! inst|inst6|8~regout $end
$var wire 1 z! inst|inst6|46~0_combout $end
$var wire 1 {! inst|inst6|13~0_combout $end
$var wire 1 |! inst|inst6|9~regout $end
$var wire 1 }! inst|inst6|7~0_combout $end
$var wire 1 ~! inst|inst6|7~regout $end
$var wire 1 !" inst|inst8|81~0_combout $end
$var wire 1 "" inst|inst8|82~0_combout $end
$var wire 1 #" inst|inst8|83~combout $end
$var wire 1 $" inst|inst8|84~0_combout $end
$var wire 1 %" inst|inst8|85~combout $end
$var wire 1 &" inst|inst8|86~0_combout $end
$var wire 1 '" inst|inst8|87~combout $end
$upscope $end
$upscope $end
$enddefinitions $end
#0
$dumpvars
0!
0"
0#
0$
0%
0&
0'
0(
0)
0*
0+
0,
0-
0.
0/
00
01
02
03
04
05
06
07
08
09
0:
0;
0<
0=
0>
0?
0@
1A
0B
1C
1D
1E
1F
xG
0H
1I
xJ
1K
1L
1M
1N
0O
0P
0Q
1R
0S
0T
0U
0V
0W
0X
0Y
0Z
0[
0\
0]
0^
0_
0`
0a
0b
0c
0d
1e
0f
1g
1h
1i
0j
1k
0l
0m
0n
0o
0p
0q
0r
0s
0t
0u
0v
0w
0x
1y
0z
0{
0|
0}
0~
0!!
0"!
0#!
0$!
0%!
1&!
0'!
0(!
0)!
0*!
0+!
0,!
0-!
0.!
0/!
00!
01!
02!
03!
04!
05!
06!
07!
08!
09!
0:!
0;!
0<!
0=!
0>!
0?!
0@!
0A!
0B!
0C!
0D!
0E!
0F!
0G!
0H!
0I!
0J!
0K!
1L!
0M!
1N!
1O!
1P!
0Q!
0R!
0S!
0T!
0U!
0V!
0W!
0X!
0Y!
0Z!
0[!
0\!
0]!
1^!
1_!
0`!
0a!
0b!
0c!
0d!
0e!
0f!
0g!
0h!
0i!
0j!
0k!
0l!
0m!
0n!
1o!
1p!
0q!
0r!
0s!
0t!
0u!
0v!
0w!
0x!
0y!
0z!
0{!
0|!
0}!
0~!
0!"
0""
0#"
0$"
0%"
0&"
1'"
$end
#18519
1!
1f
1j
0G
#37037
0!
0f
0j
1G
#55556
1!
1f
1j
0G
#74074
0!
0f
0j
1G
#92593
1!
1f
1j
0G
#111111
0!
0f
0j
1G
#129630
1!
1f
1j
0G
#148148
0!
0f
0j
1G
#166667
1!
1f
1j
0G
#185185
0!
0f
0j
1G
#203704
1!
1f
1j
0G
#222222
0!
0f
0j
1G
#240741
1!
1f
1j
0G
#259259
0!
0f
0j
1G
#277778
1!
1f
1j
0G
#296296
0!
0f
0j
1G
#314815
1!
1f
1j
0G
#333333
0!
0f
0j
1G
#351852
1!
1f
1j
0G
#370370
0!
0f
0j
1G
#388889
1!
1f
1j
0G
#407407
0!
0f
0j
1G
#425926
1!
1f
1j
0G
#444444
0!
0f
0j
1G
#462963
1!
1f
1j
0G
#481481
0!
0f
0j
1G
#500000
1!
1f
1j
0G
#518518
0!
0f
0j
1G
#537037
1!
1f
1j
0G
#555555
0!
0f
0j
1G
#574074
1!
1f
1j
0G
#592592
0!
0f
0j
1G
#611111
1!
1f
1j
0G
#629629
0!
0f
0j
1G
#648148
1!
1f
1j
0G
#666666
0!
0f
0j
1G
#685185
1!
1f
1j
0G
#703703
0!
0f
0j
1G
#722222
1!
1f
1j
0G
#740740
0!
0f
0j
1G
#759259
1!
1f
1j
0G
#777777
0!
0f
0j
1G
#796296
1!
1f
1j
0G
#814814
0!
0f
0j
1G
#833333
1!
1f
1j
0G
#851851
0!
0f
0j
1G
#870370
1!
1f
1j
0G
#888888
0!
0f
0j
1G
#907407
1!
1f
1j
0G
#925925
0!
0f
0j
1G
#944444
1!
1f
1j
0G
#962962
0!
0f
0j
1G
#981481
1!
1f
1j
0G
#999999
0!
0f
0j
1G
