Practica_Tarea_2/simulation/qsim/temporizador_50MHz.msim.vcd
$comment
	File created using the following command:
		vcd file temporizador_50MHz.msim.vcd -direction
$end
$date
	Sat Feb 24 13:56:44 2024
$end
$version
	ModelSim Version 10.1d
$end
$timescale
	1ps
$end
$scope module temporizador_50MHz_vlg_vec_tst $end
$var reg 1 ! CLK $end
$var reg 1 " RST $end
$var wire 1 # OUT $end
$var wire 1 $ sampler $end
$scope module i1 $end
$var wire 1 % gnd $end
$var wire 1 & vcc $end
$var wire 1 ' unknown $end
$var tri1 1 ( devclrn $end
$var tri1 1 ) devpor $end
$var tri1 1 * devoe $end
$var wire 1 + inst6|6~regout $end
$var wire 1 , inst14|sub|110~regout $end
$var wire 1 - inst14|sub|87~regout $end
$var wire 1 . inst|sub|110~regout $end
$var wire 1 / inst6|6~0_combout $end
$var wire 1 0 inst4|8~regout $end
$var wire 1 1 inst3|8~regout $end
$var wire 1 2 inst2|8~regout $end
$var wire 1 3 inst14|sub|110~0_combout $end
$var wire 1 4 inst14|sub|87~0_combout $end
$var wire 1 5 inst|sub|110~0_combout $end
$var wire 1 6 inst4|8~0_combout $end
$var wire 1 7 inst3|8~0_combout $end
$var wire 1 8 inst2|8~0_combout $end
$var wire 1 9 CLK~combout $end
$var wire 1 : CLK~clkctrl_outclk $end
$var wire 1 ; inst|sub|87~0_combout $end
$var wire 1 < RST~combout $end
$var wire 1 = RST~clkctrl_outclk $end
$var wire 1 > inst|sub|87~regout $end
$var wire 1 ? inst|sub|99~0_combout $end
$var wire 1 @ inst|sub|99~regout $end
$var wire 1 A inst|sub|9~0_combout $end
$var wire 1 B inst|sub|9~regout $end
$var wire 1 C inst|sub|104~combout $end
$var wire 1 D inst1|sub|87~0_combout $end
$var wire 1 E inst1|sub|87~regout $end
$var wire 1 F inst1|sub|99~0_combout $end
$var wire 1 G inst1|sub|99~regout $end
$var wire 1 H inst1|sub|94~combout $end
$var wire 1 I inst1|sub|110~0_combout $end
$var wire 1 J inst1|sub|110~regout $end
$var wire 1 K inst14|sub|9~0_combout $end
$var wire 1 L inst14|sub|9~regout $end
$var wire 1 M inst1|sub|9~0_combout $end
$var wire 1 N inst1|sub|9~regout $end
$var wire 1 O inst14|sub|84~0_combout $end
$var wire 1 P inst14|sub|84~combout $end
$var wire 1 Q inst14|sub|99~0_combout $end
$var wire 1 R inst14|sub|99~regout $end
$var wire 1 S inst2|6~0_combout $end
$var wire 1 T inst2|6~regout $end
$var wire 1 U inst2|45~0_combout $end
$var wire 1 V inst2|7~0_combout $end
$var wire 1 W inst2|7~regout $end
$var wire 1 X inst2|13~0_combout $end
$var wire 1 Y inst2|9~regout $end
$var wire 1 Z inst3|6~0_combout $end
$var wire 1 [ inst3|6~regout $end
$var wire 1 \ inst3|45~0_combout $end
$var wire 1 ] inst3|7~0_combout $end
$var wire 1 ^ inst3|7~regout $end
$var wire 1 _ inst3|13~0_combout $end
$var wire 1 ` inst3|9~regout $end
$var wire 1 a inst3|45~combout $end
$var wire 1 b inst4|6~0_combout $end
$var wire 1 c inst4|6~regout $end
$var wire 1 d inst4|7~0_combout $end
$var wire 1 e inst4|7~regout $end
$var wire 1 f inst4|46~0_combout $end
$var wire 1 g inst4|13~0_combout $end
$var wire 1 h inst4|9~regout $end
$var wire 1 i inst6|50~0_combout $end
$var wire 1 j inst6|13~0_combout $end
$var wire 1 k inst6|9~regout $end
$var wire 1 l inst6|7~0_combout $end
$var wire 1 m inst6|7~regout $end
$var wire 1 n inst6|8~0_combout $end
$var wire 1 o inst6|8~regout $end
$var wire 1 p inst7~0_combout $end
$var wire 1 q inst8~0_combout $end
$var wire 1 r inst11~1_combout $end
$var wire 1 s inst11~2_combout $end
$upscope $end
$upscope $end
$enddefinitions $end
#0
$dumpvars
0!
0"
1#
x$
0%
1&
x'
1(
1)
1*
0+
0,
0-
0.
0/
00
01
02
03
04
05
06
07
08
09
0:
0;
0<
0=
0>
0?
0@
1A
0B
0C
0D
0E
0F
0G
0H
0I
0J
0K
0L
0M
0N
0O
0P
0Q
0R
0S
0T
0U
0V
0W
0X
0Y
0Z
0[
0\
0]
0^
0_
0`
0a
0b
0c
0d
0e
0f
0g
0h
0i
0j
0k
0l
0m
0n
0o
1p
0q
1r
1s
$end
#10000
1!
19
1:
0$
#20000
0!
09
0:
1$
#30000
1!
19
1:
0$
#40000
0!
09
0:
1$
#50000
1!
19
1:
0$
#60000
0!
09
0:
1$
#70000
1!
19
1:
0$
#80000
0!
09
0:
1$
#90000
1!
19
1:
0$
#100000
0!
09
0:
1$
#110000
1!
19
1:
0$
#120000
0!
09
0:
1$
#130000
1!
19
1:
0$
#140000
0!
09
0:
1$
#150000
1!
19
1:
0$
#160000
0!
09
0:
1$
#170000
1!
19
1:
0$
#180000
0!
09
0:
1$
#190000
1!
19
1:
0$
#200000
0!
09
0:
1$
#210000
1!
19
1:
0$
#220000
0!
09
0:
1$
#230000
1!
19
1:
0$
#240000
0!
09
0:
1$
#250000
1!
19
1:
0$
#260000
0!
09
0:
1$
#270000
1!
19
1:
0$
#280000
0!
09
0:
1$
#290000
1!
19
1:
0$
#300000
0!
09
0:
1$
#310000
1!
19
1:
0$
#320000
0!
09
0:
1$
#330000
1!
19
1:
0$
#340000
0!
09
0:
1$
#350000
1!
19
1:
0$
#360000
0!
09
0:
1$
#370000
1!
19
1:
0$
#380000
0!
09
0:
1$
#390000
1!
19
1:
0$
#400000
0!
09
0:
1$
#410000
1!
19
1:
0$
#420000
0!
09
0:
1$
#430000
1!
19
1:
0$
#440000
0!
09
0:
1$
#450000
1!
19
1:
0$
#460000
0!
09
0:
1$
#470000
1!
19
1:
0$
#480000
0!
09
0:
1$
#490000
1!
19
1:
0$
#500000
0!
09
0:
1$
#510000
1!
19
1:
0$
#520000
0!
09
0:
1$
#530000
1!
19
1:
0$
#540000
0!
09
0:
1$
#550000
1!
19
1:
0$
#560000
0!
09
0:
1$
#570000
1!
19
1:
0$
#580000
0!
09
0:
1$
#590000
1!
19
1:
0$
#600000
0!
09
0:
1$
#610000
1!
19
1:
0$
#620000
0!
09
0:
1$
#630000
1!
19
1:
0$
#640000
0!
09
0:
1$
#650000
1!
19
1:
0$
#660000
0!
09
0:
1$
#670000
1!
19
1:
0$
#680000
0!
09
0:
1$
#690000
1!
19
1:
0$
#700000
0!
09
0:
1$
#710000
1!
19
1:
0$
#720000
0!
09
0:
1$
#730000
1!
19
1:
0$
#740000
0!
09
0:
1$
#750000
1!
19
1:
0$
#760000
0!
09
0:
1$
#770000
1!
19
1:
0$
#780000
0!
09
0:
1$
#790000
1!
19
1:
0$
#800000
0!
09
0:
1$
#810000
1!
19
1:
0$
#820000
0!
09
0:
1$
#830000
1!
19
1:
0$
#840000
0!
09
0:
1$
#850000
1!
19
1:
0$
#860000
0!
09
0:
1$
#870000
1!
19
1:
0$
#880000
0!
09
0:
1$
#890000
1!
19
1:
0$
#900000
0!
09
0:
1$
#910000
1!
19
1:
0$
#920000
0!
09
0:
1$
#930000
1!
19
1:
0$
#940000
0!
09
0:
1$
#950000
1!
19
1:
0$
#960000
0!
09
0:
1$
#970000
1!
19
1:
0$
#980000
0!
09
0:
1$
#990000
1!
19
1:
0$
