Practica_1_luces/simulation/qsim/Luces.msim.vcd
$comment
	File created using the following command:
		vcd file Luces.msim.vcd -direction
$end
$date
	Wed Feb 07 20:43:30 2024
$end
$version
	ModelSim Version 10.1d
$end
$timescale
	1ps
$end
$scope module Luces_vlg_vec_tst $end
$var reg 1 ! x1 $end
$var reg 1 " x2 $end
$var wire 1 # f $end
$var wire 1 $ sampler $end
$scope module i1 $end
$var wire 1 % gnd $end
$var wire 1 & vcc $end
$var wire 1 ' unknown $end
$var tri1 1 ( devclrn $end
$var tri1 1 ) devpor $end
$var tri1 1 * devoe $end
$var wire 1 + x1~combout $end
$var wire 1 , x2~combout $end
$var wire 1 - inst4~0_combout $end
$upscope $end
$upscope $end
$enddefinitions $end
#0
$dumpvars
0!
0"
0#
x$
0%
1&
x'
1(
1)
1*
0+
0,
0-
$end
#5000000
1!
1+
0$
1-
1#
#10000000
1"
0!
1,
0+
1$
#15000000
1!
1+
0$
0-
0#
#20000000
0"
0!
0,
0+
1$
#25000000
1!
1+
0$
1-
1#
#30000000
1"
0!
1,
0+
1$
#35000000
1!
1+
0$
0-
0#
#40000000
0"
0!
0,
0+
1$
#45000000
1!
1+
0$
1-
1#
#50000000
1"
0!
1,
0+
1$
#55000000
1!
1+
0$
0-
0#
#60000000
0"
0!
0,
0+
1$
#65000000
1!
1+
0$
1-
1#
#70000000
1"
0!
1,
0+
1$
#75000000
1!
1+
0$
0-
0#
#80000000
0"
0!
0,
0+
1$
#85000000
1!
1+
0$
1-
1#
#90000000
1"
0!
1,
0+
1$
#95000000
1!
1+
0$
0-
0#
