Practica_2_Conversor/simulation/qsim/Conversor.msim.vcd
$comment
	File created using the following command:
		vcd file Conversor.msim.vcd -direction
$end
$date
	Wed Feb 07 21:59:50 2024
$end
$version
	ModelSim Version 10.1d
$end
$timescale
	1ps
$end
$scope module Conversor_vlg_vec_tst $end
$var reg 1 ! IN0 $end
$var reg 1 " IN1 $end
$var reg 1 # IN2 $end
$var reg 1 $ IN4 $end
$var wire 1 % A $end
$var wire 1 & B $end
$var wire 1 ' C $end
$var wire 1 ( D $end
$var wire 1 ) E $end
$var wire 1 * F $end
$var wire 1 + G $end
$var wire 1 , sampler $end
$scope module i1 $end
$var wire 1 - gnd $end
$var wire 1 . vcc $end
$var wire 1 / unknown $end
$var tri1 1 0 devclrn $end
$var tri1 1 1 devpor $end
$var tri1 1 2 devoe $end
$var wire 1 3 IN0~combout $end
$var wire 1 4 IN1~combout $end
$var wire 1 5 IN2~combout $end
$var wire 1 6 IN4~combout $end
$var wire 1 7 inst|81~0_combout $end
$var wire 1 8 inst|82~0_combout $end
$var wire 1 9 inst|83~combout $end
$var wire 1 : inst|84~0_combout $end
$var wire 1 ; inst|85~combout $end
$var wire 1 < inst|86~0_combout $end
$var wire 1 = inst|87~combout $end
$upscope $end
$upscope $end
$enddefinitions $end
#0
$dumpvars
0!
0"
0#
0$
0%
0&
0'
0(
0)
0*
1+
x,
0-
1.
x/
10
11
12
03
04
05
06
07
08
09
0:
0;
0<
1=
$end
#500000
1!
13
0,
1<
1;
1:
17
1*
1)
1(
1%
#1000000
1"
0!
14
03
1,
0=
0;
0:
19
07
0+
0)
0(
1'
0%
#1500000
1!
13
0,
1;
09
1)
0'
#2000000
1#
0"
0!
15
04
03
1,
0<
1:
17
0*
1(
1%
#2500000
1!
13
0,
0:
18
07
0(
1&
0%
#3000000
1"
0!
14
03
1,
0;
17
0)
1%
#3500000
1!
13
0,
1=
1<
1;
1:
08
07
1+
1*
1)
1(
0&
0%
#4000000
1$
0#
0"
0!
16
05
04
03
1,
0=
0<
0;
0:
0+
0*
0)
0(
#4500000
1!
13
0,
1;
1:
1)
1(
#5000000
1"
0!
14
03
1,
1<
0;
0:
19
18
17
1*
0)
0(
1'
1&
1%
#5500000
1!
13
0,
1;
09
1)
0'
#6000000
1#
0"
0!
15
04
03
1,
0<
1:
19
08
0*
1(
1'
0&
#6500000
1!
13
0,
0:
18
07
0(
1&
0%
#7000000
1"
0!
14
03
1,
0;
17
0)
1%
#7500000
1!
13
0,
1=
1<
1;
1:
1+
1*
1)
1(
#8000000
0$
0#
0"
0!
06
05
04
03
1,
0<
09
08
07
0;
0:
0*
0'
0&
0%
0)
0(
#8500000
1!
13
0,
1<
1;
1:
17
1*
1)
1(
1%
#9000000
1"
0!
14
03
1,
0=
0;
0:
19
07
0+
0)
0(
1'
0%
#9500000
1!
13
0,
1;
09
1)
0'
#10000000
1#
0"
0!
15
04
03
1,
0<
1:
17
0*
1(
1%
#10500000
1!
13
0,
0:
18
07
0(
1&
0%
#11000000
1"
0!
14
03
1,
0;
17
0)
1%
#11500000
1!
13
0,
1=
1<
1;
1:
08
07
1+
1*
1)
1(
0&
0%
#12000000
1$
0#
0"
0!
16
05
04
03
1,
0=
0<
0;
0:
0+
0*
0)
0(
#12500000
1!
13
0,
1;
1:
1)
1(
#13000000
1"
0!
14
03
1,
1<
0;
0:
19
18
17
1*
0)
0(
1'
1&
1%
#13500000
1!
13
0,
1;
09
1)
0'
#14000000
1#
0"
0!
15
04
03
1,
0<
1:
19
08
0*
1(
1'
0&
#14500000
1!
13
0,
0:
18
07
0(
1&
0%
#15000000
1"
0!
14
03
1,
0;
17
0)
1%
#15500000
1!
13
0,
1=
1<
1;
1:
1+
1*
1)
1(
#16000000
0$
0#
0"
0!
06
05
04
03
1,
0<
09
08
07
0;
0:
0*
0'
0&
0%
0)
0(
#16500000
1!
13
0,
1<
1;
1:
17
1*
1)
1(
1%
#17000000
1"
0!
14
03
1,
0=
0;
0:
19
07
0+
0)
0(
1'
0%
#17500000
1!
13
0,
1;
09
1)
0'
#18000000
1#
0"
0!
15
04
03
1,
0<
1:
17
0*
1(
1%
#18500000
1!
13
0,
0:
18
07
0(
1&
0%
#19000000
1"
0!
14
03
1,
0;
17
0)
1%
#19500000
1!
13
0,
1=
1<
1;
1:
08
07
1+
1*
1)
1(
0&
0%
#20000000
1$
0#
0"
0!
16
05
04
03
1,
0=
0<
0;
0:
0+
0*
0)
0(
#20500000
1!
13
0,
1;
1:
1)
1(
#21000000
1"
0!
14
03
1,
1<
0;
0:
19
18
17
1*
0)
0(
1'
1&
1%
#21500000
1!
13
0,
1;
09
1)
0'
#22000000
1#
0"
0!
15
04
03
1,
0<
1:
19
08
0*
1(
1'
0&
#22500000
1!
13
0,
0:
18
07
0(
1&
0%
#23000000
1"
0!
14
03
1,
0;
17
0)
1%
#23500000
1!
13
0,
1=
1<
1;
1:
1+
1*
1)
1(
#24000000
0$
0#
0"
0!
06
05
04
03
1,
0<
09
08
07
0;
0:
0*
0'
0&
0%
0)
0(
#24500000
1!
13
0,
1<
1;
1:
17
1*
1)
1(
1%
#25000000
1"
0!
14
03
1,
0=
0;
0:
19
07
0+
0)
0(
1'
0%
#25500000
1!
13
0,
1;
09
1)
0'
#26000000
1#
0"
0!
15
04
03
1,
0<
1:
17
0*
1(
1%
#26500000
1!
13
0,
0:
18
07
0(
1&
0%
#27000000
1"
0!
14
03
1,
0;
17
0)
1%
#27500000
1!
13
0,
1=
1<
1;
1:
08
07
1+
1*
1)
1(
0&
0%
#28000000
1$
0#
0"
0!
16
05
04
03
1,
0=
0<
0;
0:
0+
0*
0)
0(
#28500000
1!
13
0,
1;
1:
1)
1(
#29000000
1"
0!
14
03
1,
1<
0;
0:
19
18
17
1*
0)
0(
1'
1&
1%
#29500000
1!
13
0,
1;
09
1)
0'
#30000000
1#
0"
0!
15
04
03
1,
0<
1:
19
08
0*
1(
1'
0&
#30500000
1!
13
0,
0:
18
07
0(
1&
0%
#31000000
1"
0!
14
03
1,
0;
17
0)
1%
#31500000
1!
13
0,
1=
1<
1;
1:
1+
1*
1)
1(
#32000000
0$
0#
0"
0!
06
05
04
03
1,
0<
09
08
07
0;
0:
0*
0'
0&
0%
0)
0(
#32500000
1!
13
0,
1<
1;
1:
17
1*
1)
1(
1%
#33000000
1"
0!
14
03
1,
0=
0;
0:
19
07
0+
0)
0(
1'
0%
#33500000
1!
13
0,
1;
09
1)
0'
#34000000
1#
0"
0!
15
04
03
1,
0<
1:
17
0*
1(
1%
#34500000
1!
13
0,
0:
18
07
0(
1&
0%
#35000000
1"
0!
14
03
1,
0;
17
0)
1%
#35500000
1!
13
0,
1=
1<
1;
1:
08
07
1+
1*
1)
1(
0&
0%
#36000000
1$
0#
0"
0!
16
05
04
03
1,
0=
0<
0;
0:
0+
0*
0)
0(
#36500000
1!
13
0,
1;
1:
1)
1(
#37000000
1"
0!
14
03
1,
1<
0;
0:
19
18
17
1*
0)
0(
1'
1&
1%
#37500000
1!
13
0,
1;
09
1)
0'
#38000000
1#
0"
0!
15
04
03
1,
0<
1:
19
08
0*
1(
1'
0&
#38500000
1!
13
0,
0:
18
07
0(
1&
0%
#39000000
1"
0!
14
03
1,
0;
17
0)
1%
#39500000
1!
13
0,
1=
1<
1;
1:
1+
1*
1)
1(
#40000000
0$
0#
0"
0!
06
05
04
03
1,
0<
09
08
07
0;
0:
0*
0'
0&
0%
0)
0(
#40500000
1!
13
0,
1<
1;
1:
17
1*
1)
1(
1%
#41000000
1"
0!
14
03
1,
0=
0;
0:
19
07
0+
0)
0(
1'
0%
#41500000
1!
13
0,
1;
09
1)
0'
#42000000
1#
0"
0!
15
04
03
1,
0<
1:
17
0*
1(
1%
#42500000
1!
13
0,
0:
18
07
0(
1&
0%
#43000000
1"
0!
14
03
1,
0;
17
0)
1%
#43500000
1!
13
0,
1=
1<
1;
1:
08
07
1+
1*
1)
1(
0&
0%
#44000000
1$
0#
0"
0!
16
05
04
03
1,
0=
0<
0;
0:
0+
0*
0)
0(
#44500000
1!
13
0,
1;
1:
1)
1(
#45000000
1"
0!
14
03
1,
1<
0;
0:
19
18
17
1*
0)
0(
1'
1&
1%
#45500000
1!
13
0,
1;
09
1)
0'
#46000000
1#
0"
0!
15
04
03
1,
0<
1:
19
08
0*
1(
1'
0&
#46500000
1!
13
0,
0:
18
07
0(
1&
0%
#47000000
1"
0!
14
03
1,
0;
17
0)
1%
#47500000
1!
13
0,
1=
1<
1;
1:
1+
1*
1)
1(
#48000000
0$
0#
0"
0!
06
05
04
03
1,
0<
09
08
07
0;
0:
0*
0'
0&
0%
0)
0(
#48500000
1!
13
0,
1<
1;
1:
17
1*
1)
1(
1%
#49000000
1"
0!
14
03
1,
0=
0;
0:
19
07
0+
0)
0(
1'
0%
#49500000
1!
13
0,
1;
09
1)
0'
#50000000
1#
0"
0!
15
04
03
1,
0<
1:
17
0*
1(
1%
#50500000
1!
13
0,
0:
18
07
0(
1&
0%
#51000000
1"
0!
14
03
1,
0;
17
0)
1%
#51500000
1!
13
0,
1=
1<
1;
1:
08
07
1+
1*
1)
1(
0&
0%
#52000000
1$
0#
0"
0!
16
05
04
03
1,
0=
0<
0;
0:
0+
0*
0)
0(
#52500000
1!
13
0,
1;
1:
1)
1(
#53000000
1"
0!
14
03
1,
1<
0;
0:
19
18
17
1*
0)
0(
1'
1&
1%
#53500000
1!
13
0,
1;
09
1)
0'
#54000000
1#
0"
0!
15
04
03
1,
0<
1:
19
08
0*
1(
1'
0&
#54500000
1!
13
0,
0:
18
07
0(
1&
0%
#55000000
1"
0!
14
03
1,
0;
17
0)
1%
#55500000
1!
13
0,
1=
1<
1;
1:
1+
1*
1)
1(
#56000000
0$
0#
0"
0!
06
05
04
03
1,
0<
09
08
07
0;
0:
0*
0'
0&
0%
0)
0(
#56500000
1!
13
0,
1<
1;
1:
17
1*
1)
1(
1%
#57000000
1"
0!
14
03
1,
0=
0;
0:
19
07
0+
0)
0(
1'
0%
#57500000
1!
13
0,
1;
09
1)
0'
#58000000
1#
0"
0!
15
04
03
1,
0<
1:
17
0*
1(
1%
#58500000
1!
13
0,
0:
18
07
0(
1&
0%
#59000000
1"
0!
14
03
1,
0;
17
0)
1%
#59500000
1!
13
0,
1=
1<
1;
1:
08
07
1+
1*
1)
1(
0&
0%
#60000000
1$
0#
0"
0!
16
05
04
03
1,
0=
0<
0;
0:
0+
0*
0)
0(
#60500000
1!
13
0,
1;
1:
1)
1(
#61000000
1"
0!
14
03
1,
1<
0;
0:
19
18
17
1*
0)
0(
1'
1&
1%
#61500000
1!
13
0,
1;
09
1)
0'
#62000000
1#
0"
0!
15
04
03
1,
0<
1:
19
08
0*
1(
1'
0&
#62500000
1!
13
0,
0:
18
07
0(
1&
0%
#63000000
1"
0!
14
03
1,
0;
17
0)
1%
#63500000
1!
13
0,
1=
1<
1;
1:
1+
1*
1)
1(
#64000000
0$
0#
0"
0!
06
05
04
03
1,
0<
09
08
07
0;
0:
0*
0'
0&
0%
0)
0(
#64500000
1!
13
0,
1<
1;
1:
17
1*
1)
1(
1%
#65000000
1"
0!
14
03
1,
0=
0;
0:
19
07
0+
0)
0(
1'
0%
#65500000
1!
13
0,
1;
09
1)
0'
#66000000
1#
0"
0!
15
04
03
1,
0<
1:
17
0*
1(
1%
#66500000
1!
13
0,
0:
18
07
0(
1&
0%
#67000000
1"
0!
14
03
1,
0;
17
0)
1%
#67500000
1!
13
0,
1=
1<
1;
1:
08
07
1+
1*
1)
1(
0&
0%
#68000000
1$
0#
0"
0!
16
05
04
03
1,
0=
0<
0;
0:
0+
0*
0)
0(
#68500000
1!
13
0,
1;
1:
1)
1(
#69000000
1"
0!
14
03
1,
1<
0;
0:
19
18
17
1*
0)
0(
1'
1&
1%
#69500000
1!
13
0,
1;
09
1)
0'
#70000000
1#
0"
0!
15
04
03
1,
0<
1:
19
08
0*
1(
1'
0&
#70500000
1!
13
0,
0:
18
07
0(
1&
0%
#71000000
1"
0!
14
03
1,
0;
17
0)
1%
#71500000
1!
13
0,
1=
1<
1;
1:
1+
1*
1)
1(
#72000000
0$
0#
0"
0!
06
05
04
03
1,
0<
09
08
07
0;
0:
0*
0'
0&
0%
0)
0(
#72500000
1!
13
0,
1<
1;
1:
17
1*
1)
1(
1%
#73000000
1"
0!
14
03
1,
0=
0;
0:
19
07
0+
0)
0(
1'
0%
#73500000
1!
13
0,
1;
09
1)
0'
#74000000
1#
0"
0!
15
04
03
1,
0<
1:
17
0*
1(
1%
#74500000
1!
13
0,
0:
18
07
0(
1&
0%
#75000000
1"
0!
14
03
1,
0;
17
0)
1%
#75500000
1!
13
0,
1=
1<
1;
1:
08
07
1+
1*
1)
1(
0&
0%
#76000000
1$
0#
0"
0!
16
05
04
03
1,
0=
0<
0;
0:
0+
0*
0)
0(
#76500000
1!
13
0,
1;
1:
1)
1(
#77000000
1"
0!
14
03
1,
1<
0;
0:
19
18
17
1*
0)
0(
1'
1&
1%
#77500000
1!
13
0,
1;
09
1)
0'
#78000000
1#
0"
0!
15
04
03
1,
0<
1:
19
08
0*
1(
1'
0&
#78500000
1!
13
0,
0:
18
07
0(
1&
0%
#79000000
1"
0!
14
03
1,
0;
17
0)
1%
#79500000
1!
13
0,
1=
1<
1;
1:
1+
1*
1)
1(
#80000000
0$
0#
0"
0!
06
05
04
03
1,
0<
09
08
07
0;
0:
0*
0'
0&
0%
0)
0(
#80500000
1!
13
0,
1<
1;
1:
17
1*
1)
1(
1%
#81000000
1"
0!
14
03
1,
0=
0;
0:
19
07
0+
0)
0(
1'
0%
#81500000
1!
13
0,
1;
09
1)
0'
#82000000
1#
0"
0!
15
04
03
1,
0<
1:
17
0*
1(
1%
#82500000
1!
13
0,
0:
18
07
0(
1&
0%
#83000000
1"
0!
14
03
1,
0;
17
0)
1%
#83500000
1!
13
0,
1=
1<
1;
1:
08
07
1+
1*
1)
1(
0&
0%
#84000000
1$
0#
0"
0!
16
05
04
03
1,
0=
0<
0;
0:
0+
0*
0)
0(
#84500000
1!
13
0,
1;
1:
1)
1(
#85000000
1"
0!
14
03
1,
1<
0;
0:
19
18
17
1*
0)
0(
1'
1&
1%
#85500000
1!
13
0,
1;
09
1)
0'
#86000000
1#
0"
0!
15
04
03
1,
0<
1:
19
08
0*
1(
1'
0&
#86500000
1!
13
0,
0:
18
07
0(
1&
0%
#87000000
1"
0!
14
03
1,
0;
17
0)
1%
#87500000
1!
13
0,
1=
1<
1;
1:
1+
1*
1)
1(
#88000000
0$
0#
0"
0!
06
05
04
03
1,
0<
09
08
07
0;
0:
0*
0'
0&
0%
0)
0(
#88500000
1!
13
0,
1<
1;
1:
17
1*
1)
1(
1%
#89000000
1"
0!
14
03
1,
0=
0;
0:
19
07
0+
0)
0(
1'
0%
#89500000
1!
13
0,
1;
09
1)
0'
#90000000
1#
0"
0!
15
04
03
1,
0<
1:
17
0*
1(
1%
#90500000
1!
13
0,
0:
18
07
0(
1&
0%
#91000000
1"
0!
14
03
1,
0;
17
0)
1%
#91500000
1!
13
0,
1=
1<
1;
1:
08
07
1+
1*
1)
1(
0&
0%
#92000000
1$
0#
0"
0!
16
05
04
03
1,
0=
0<
0;
0:
0+
0*
0)
0(
#92500000
1!
13
0,
1;
1:
1)
1(
#93000000
1"
0!
14
03
1,
1<
0;
0:
19
18
17
1*
0)
0(
1'
1&
1%
#93500000
1!
13
0,
1;
09
1)
0'
#94000000
1#
0"
0!
15
04
03
1,
0<
1:
19
08
0*
1(
1'
0&
#94500000
1!
13
0,
0:
18
07
0(
1&
0%
#95000000
1"
0!
14
03
1,
0;
17
0)
1%
#95500000
1!
13
0,
1=
1<
1;
1:
1+
1*
1)
1(
#96000000
0$
0#
0"
0!
06
05
04
03
1,
0<
09
08
07
0;
0:
0*
0'
0&
0%
0)
0(
#96500000
1!
13
0,
1<
1;
1:
17
1*
1)
1(
1%
#97000000
1"
0!
14
03
1,
0=
0;
0:
19
07
0+
0)
0(
1'
0%
#97500000
1!
13
0,
1;
09
1)
0'
#98000000
1#
0"
0!
15
04
03
1,
0<
1:
17
0*
1(
1%
#98500000
1!
13
0,
0:
18
07
0(
1&
0%
#99000000
1"
0!
14
03
1,
0;
17
0)
1%
#99500000
1!
13
0,
1=
1<
1;
1:
08
07
1+
1*
1)
1(
0&
0%
