Practica_4_contadores/simulation/qsim/minutos.msim.vcd
$comment
	File created using the following command:
		vcd file minutos.msim.vcd -direction
$end
$date
	Fri Feb 09 19:22:33 2024
$end
$version
	ModelSim Version 10.1d
$end
$timescale
	1ps
$end
$scope module minutos_vlg_vec_tst $end
$var reg 1 ! CLOCK $end
$var reg 1 " RESET $end
$var wire 1 # ADS $end
$var wire 1 $ AUS $end
$var wire 1 % BDS $end
$var wire 1 & BUS $end
$var wire 1 ' CDS $end
$var wire 1 ( CUS $end
$var wire 1 ) DDS $end
$var wire 1 * DUS $end
$var wire 1 + EDS $end
$var wire 1 , EUS $end
$var wire 1 - FDS $end
$var wire 1 . FUS $end
$var wire 1 / GDS $end
$var wire 1 0 GUS $end
$var wire 1 1 LED1S $end
$var wire 1 2 sampler $end
$scope module i1 $end
$var wire 1 3 gnd $end
$var wire 1 4 vcc $end
$var wire 1 5 unknown $end
$var tri1 1 6 devclrn $end
$var tri1 1 7 devpor $end
$var tri1 1 8 devoe $end
$var wire 1 9 inst1|inst5|9~regout $end
$var wire 1 : inst1|inst4|6~regout $end
$var wire 1 ; inst1|inst|sub|110~regout $end
$var wire 1 < inst1|inst5|8~regout $end
$var wire 1 = inst1|inst5|7~regout $end
$var wire 1 > inst1|inst5|45~0_combout $end
$var wire 1 ? inst1|inst5|13~0_combout $end
$var wire 1 @ inst1|inst4|7~regout $end
$var wire 1 A inst1|inst4|6~0_combout $end
$var wire 1 B inst1|inst3|8~regout $end
$var wire 1 C inst1|inst2|8~regout $end
$var wire 1 D inst1|inst|sub|110~0_combout $end
$var wire 1 E inst1|inst5|8~0_combout $end
$var wire 1 F inst1|inst5|7~0_combout $end
$var wire 1 G inst1|inst4|7~0_combout $end
$var wire 1 H inst1|inst3|8~0_combout $end
$var wire 1 I inst1|inst2|8~0_combout $end
$var wire 1 J CLOCK~combout $end
$var wire 1 K CLOCK~clkctrl_outclk $end
$var wire 1 L inst1|inst11~2clkctrl_outclk $end
$var wire 1 M inst1|inst|sub|9~0_combout $end
$var wire 1 N RESET~combout $end
$var wire 1 O RESET~clkctrl_outclk $end
$var wire 1 P inst1|inst|sub|9~regout $end
$var wire 1 Q inst1|inst|sub|87~0_combout $end
$var wire 1 R inst1|inst|sub|87~regout $end
$var wire 1 S inst1|inst|sub|99~0_combout $end
$var wire 1 T inst1|inst|sub|99~regout $end
$var wire 1 U inst1|inst|sub|104~combout $end
$var wire 1 V inst1|inst1|sub|9~0_combout $end
$var wire 1 W inst1|inst1|sub|9~regout $end
$var wire 1 X inst1|inst1|sub|87~0_combout $end
$var wire 1 Y inst1|inst1|sub|87~regout $end
$var wire 1 Z inst1|inst1|sub|94~combout $end
$var wire 1 [ inst1|inst2|6~0_combout $end
$var wire 1 \ inst1|inst2|6~regout $end
$var wire 1 ] inst1|inst2|45~1_combout $end
$var wire 1 ^ inst1|inst2|7~0_combout $end
$var wire 1 _ inst1|inst2|7~regout $end
$var wire 1 ` inst1|inst2|13~0_combout $end
$var wire 1 a inst1|inst2|9~regout $end
$var wire 1 b inst1|inst1|sub|110~0_combout $end
$var wire 1 c inst1|inst1|sub|110~regout $end
$var wire 1 d inst1|inst1|sub|99~0_combout $end
$var wire 1 e inst1|inst1|sub|99~regout $end
$var wire 1 f inst1|inst2|45~0_combout $end
$var wire 1 g inst1|inst2|45~combout $end
$var wire 1 h inst1|inst3|6~0_combout $end
$var wire 1 i inst1|inst3|6~regout $end
$var wire 1 j inst1|inst3|7~0_combout $end
$var wire 1 k inst1|inst3|7~regout $end
$var wire 1 l inst1|inst3|45~0_combout $end
$var wire 1 m inst1|inst3|13~0_combout $end
$var wire 1 n inst1|inst3|9~regout $end
$var wire 1 o inst1|inst4|45~0_combout $end
$var wire 1 p inst1|inst4|8~0_combout $end
$var wire 1 q inst1|inst4|8~regout $end
$var wire 1 r inst1|inst4|13~0_combout $end
$var wire 1 s inst1|inst4|9~regout $end
$var wire 1 t inst1|inst5|6~0_combout $end
$var wire 1 u inst1|inst5|6~regout $end
$var wire 1 v inst1|inst5|45~combout $end
$var wire 1 w inst1|inst6|8~0_combout $end
$var wire 1 x inst1|inst6|8~regout $end
$var wire 1 y inst1|inst6|46~0_combout $end
$var wire 1 z inst1|inst6|13~0_combout $end
$var wire 1 { inst1|inst6|9~regout $end
$var wire 1 | inst1|inst6|7~0_combout $end
$var wire 1 } inst1|inst6|7~regout $end
$var wire 1 ~ inst1|inst6|6~0_combout $end
$var wire 1 !! inst1|inst6|6~regout $end
$var wire 1 "! inst1|inst7~0_combout $end
$var wire 1 #! inst1|inst11~1_combout $end
$var wire 1 $! inst1|inst8~0_combout $end
$var wire 1 %! inst1|inst11~2_combout $end
$var wire 1 &! inst2|6~0_combout $end
$var wire 1 '! inst2|6~regout $end
$var wire 1 (! inst2|7~0_combout $end
$var wire 1 )! inst2|7~regout $end
$var wire 1 *! inst2|9~0_combout $end
$var wire 1 +! inst2|9~regout $end
$var wire 1 ,! inst2|8~0_combout $end
$var wire 1 -! inst2|8~regout $end
$var wire 1 .! inst3|81~combout $end
$var wire 1 /! inst3|82~0_combout $end
$var wire 1 0! inst3|83~combout $end
$var wire 1 1! inst3|84~0_combout $end
$var wire 1 2! inst3|85~combout $end
$var wire 1 3! inst3|86~0_combout $end
$var wire 1 4! inst3|87~combout $end
$var wire 1 5! inst|6~0_combout $end
$var wire 1 6! inst|6~regout $end
$var wire 1 7! inst|50~0_combout $end
$var wire 1 8! inst|8~0_combout $end
$var wire 1 9! inst|8~regout $end
$var wire 1 :! inst|13~0_combout $end
$var wire 1 ;! inst|9~regout $end
$var wire 1 <! inst|7~0_combout $end
$var wire 1 =! inst|7~regout $end
$var wire 1 >! inst4|81~0_combout $end
$var wire 1 ?! inst4|82~0_combout $end
$var wire 1 @! inst4|83~combout $end
$var wire 1 A! inst4|84~0_combout $end
$var wire 1 B! inst4|85~combout $end
$var wire 1 C! inst4|86~0_combout $end
$var wire 1 D! inst4|87~combout $end
$upscope $end
$upscope $end
$enddefinitions $end
#0
$dumpvars
0!
0"
0#
0$
0%
0&
0'
0(
0)
0*
0+
0,
0-
0.
1/
10
11
x2
03
14
x5
16
17
18
09
0:
0;
0<
0=
0>
0?
0@
0A
0B
0C
0D
0E
0F
0G
0H
0I
0J
0K
1L
1M
0N
0O
0P
0Q
0R
0S
0T
0U
0V
0W
0X
0Y
0Z
0[
0\
0]
0^
0_
0`
0a
0b
0c
0d
0e
0f
0g
0h
0i
0j
0k
0l
0m
0n
0o
0p
0q
0r
0s
0t
0u
0v
0w
0x
0y
0z
0{
0|
0}
0~
0!!
1"!
1#!
0$!
1%!
1&!
0'!
0(!
0)!
0*!
0+!
0,!
0-!
0.!
0/!
00!
01!
02!
03!
14!
05!
06!
07!
08!
09!
0:!
0;!
0<!
0=!
0>!
0?!
0@!
0A!
0B!
0C!
1D!
$end
#8333
1!
1J
1K
02
#16666
0!
0J
0K
12
#24999
1!
1J
1K
02
#33332
0!
0J
0K
12
#41665
1!
1J
1K
02
#49998
0!
0J
0K
12
#58331
1!
1J
1K
02
#66664
0!
0J
0K
12
#74997
1!
1J
1K
02
#83330
0!
0J
0K
12
#91663
1!
1J
1K
02
#99996
0!
0J
0K
12
#108329
1!
1J
1K
02
#116662
0!
0J
0K
12
#124995
1!
1J
1K
02
#133328
0!
0J
0K
12
#141661
1!
1J
1K
02
#149994
0!
0J
0K
12
#158327
1!
1J
1K
02
#166660
0!
0J
0K
12
#174993
1!
1J
1K
02
#183326
0!
0J
0K
12
#191659
1!
1J
1K
02
#199992
0!
0J
0K
12
#208325
1!
1J
1K
02
#216658
0!
0J
0K
12
#224991
1!
1J
1K
02
#233324
0!
0J
0K
12
#241657
1!
1J
1K
02
#249990
0!
0J
0K
12
#258323
1!
1J
1K
02
#266656
0!
0J
0K
12
#274989
1!
1J
1K
02
#283322
0!
0J
0K
12
#291655
1!
1J
1K
02
#299988
0!
0J
0K
12
#308321
1!
1J
1K
02
#316654
0!
0J
0K
12
#324987
1!
1J
1K
02
#333320
0!
0J
0K
12
#341653
1!
1J
1K
02
#349986
0!
0J
0K
12
#358319
1!
1J
1K
02
#366652
0!
0J
0K
12
#374985
1!
1J
1K
02
#383318
0!
0J
0K
12
#391651
1!
1J
1K
02
#399984
0!
0J
0K
12
#408317
1!
1J
1K
02
#416650
0!
0J
0K
12
#424983
1!
1J
1K
02
#433316
0!
0J
0K
12
#441649
1!
1J
1K
02
#449982
0!
0J
0K
12
#458315
1!
1J
1K
02
#466648
0!
0J
0K
12
#474981
1!
1J
1K
02
#483314
0!
0J
0K
12
#491647
1!
1J
1K
02
#499980
0!
0J
0K
12
#500000
1"
1N
1O
02
#508313
1!
1J
1K
12
1P
1Q
0M
#516646
0!
0J
0K
02
#524979
1!
1J
1K
12
1R
0P
1M
#533312
0!
0J
0K
02
#541645
1!
1J
1K
12
1P
1S
0Q
0M
#549978
0!
0J
0K
02
#558311
1!
1J
1K
12
1T
0R
0P
1M
#566644
0!
0J
0K
02
#574977
1!
1J
1K
12
1P
1Q
0M
#583310
0!
0J
0K
02
#591643
1!
1J
1K
12
1R
0P
1M
#599976
0!
0J
0K
02
#608309
1!
1J
1K
12
1P
0S
0Q
0M
1D
#616642
0!
0J
0K
02
#624975
1!
1J
1K
12
0T
0R
0P
1;
1M
#633308
0!
0J
0K
02
#641641
1!
1J
1K
12
1P
1Q
0M
#649974
0!
0J
0K
02
#658307
1!
1J
1K
12
1R
0P
1M
#666640
0!
0J
0K
02
#674973
1!
1J
1K
12
1P
1S
0Q
0M
#683306
0!
0J
0K
02
#691639
1!
1J
1K
12
1T
0R
0P
1M
#699972
0!
0J
0K
02
#708305
1!
1J
1K
12
1P
1Q
0M
#716638
0!
0J
0K
02
#724971
1!
1J
1K
12
1R
0P
1M
#733304
0!
0J
0K
02
#741637
1!
1J
1K
12
1P
1U
0S
0Q
0M
0D
1V
#749970
0!
0J
0K
02
#758303
1!
1J
1K
12
1W
0T
0R
0P
0;
1X
0V
0U
1M
0X
1V
#766636
0!
0J
0K
02
#774969
1!
1J
1K
12
1P
1Q
0M
#783302
0!
0J
0K
02
#791635
1!
1J
1K
12
1R
0P
1M
#799968
0!
0J
0K
02
#808301
1!
1J
1K
12
1P
1S
0Q
0M
#816634
0!
0J
0K
02
#824967
1!
1J
1K
12
1T
0R
0P
1M
#833300
0!
0J
0K
02
#841633
1!
1J
1K
12
1P
1Q
0M
#849966
0!
0J
0K
02
#858299
1!
1J
1K
12
1R
0P
1M
#866632
0!
0J
0K
02
#874965
1!
1J
1K
12
1P
0S
0Q
0M
1D
#883298
0!
0J
0K
02
#891631
1!
1J
1K
12
0T
0R
0P
1;
1M
#899964
0!
0J
0K
02
#908297
1!
1J
1K
12
1P
1Q
0M
#916630
0!
0J
0K
02
#924963
1!
1J
1K
12
1R
0P
1M
#933296
0!
0J
0K
02
#941629
1!
1J
1K
12
1P
1S
0Q
0M
#949962
0!
0J
0K
02
#958295
1!
1J
1K
12
1T
0R
0P
1M
#966628
0!
0J
0K
02
#974961
1!
1J
1K
12
1P
1Q
0M
#983294
0!
0J
0K
02
#991627
1!
1J
1K
12
1R
0P
1M
#999960
0!
0J
0K
02
